-- Merging decision tree log ---
manifest
ADDED from C:\Users\folly\working\SUNMI\Transfer\P2&P2PRO payment SDK\P2&P2PRO pyament SDK\SunmiPaySdkTestDemo\app\src\main\AndroidManifest.xml:2:1-139:12
INJECTED from C:\Users\folly\working\SUNMI\Transfer\P2&P2PRO payment SDK\P2&P2PRO pyament SDK\SunmiPaySdkTestDemo\app\src\main\AndroidManifest.xml:2:1-139:12
INJECTED from C:\Users\folly\working\SUNMI\Transfer\P2&P2PRO payment SDK\P2&P2PRO pyament SDK\SunmiPaySdkTestDemo\app\src\main\AndroidManifest.xml:2:1-139:12
INJECTED from C:\Users\folly\working\SUNMI\Transfer\P2&P2PRO payment SDK\P2&P2PRO pyament SDK\SunmiPaySdkTestDemo\app\src\main\AndroidManifest.xml:2:1-139:12
MERGED from [PayLib-release-1.4.49.aar] C:\Users\folly\.gradle\caches\transforms-2\files-2.1\86d0d81aa8c04a01e136af5445670ccd\PayLib-release-1.4.49\AndroidManifest.xml:2:1-11:12
MERGED from [com.android.support:design:28.0.0] C:\Users\folly\.gradle\caches\transforms-2\files-2.1\2762df556eb00935af44a9cef289bcc5\design-28.0.0\AndroidManifest.xml:17:1-24:12
MERGED from [com.android.support:appcompat-v7:28.0.0] C:\Users\folly\.gradle\caches\transforms-2\files-2.1\2ad9bfadafd430f8dbad1412b3cf8d16\appcompat-v7-28.0.0\AndroidManifest.xml:17:1-22:12
MERGED from [com.android.support:recyclerview-v7:28.0.0] C:\Users\folly\.gradle\caches\transforms-2\files-2.1\cbc9fded8b0ca2dc6b55abe24b8dd624\recyclerview-v7-28.0.0\AndroidManifest.xml:17:1-22:12
MERGED from [com.android.support.constraint:constraint-layout:1.1.3] C:\Users\folly\.gradle\caches\transforms-2\files-2.1\88180c2d9df321ed403965b1f5904015\constraint-layout-1.1.3\AndroidManifest.xml:2:1-11:12
MERGED from [com.sunmi:sunmiui:1.1.27] C:\Users\folly\.gradle\caches\transforms-2\files-2.1\b6198dd446f818d5a27065717a3ed399\sunmiui-1.1.27\AndroidManifest.xml:2:1-18:12
MERGED from [com.sunmi:printerlibrary:1.0.7] C:\Users\folly\.gradle\caches\transforms-2\files-2.1\ecb2b1b8199059aa22a77af959b8eaa2\printerlibrary-1.0.7\AndroidManifest.xml:2:1-11:12
MERGED from [com.android.support:support-fragment:28.0.0] C:\Users\folly\.gradle\caches\transforms-2\files-2.1\2c2719b22890890f5ae6a51c577cf1e6\support-fragment-28.0.0\AndroidManifest.xml:17:1-22:12
MERGED from [com.android.support:animated-vector-drawable:28.0.0] C:\Users\folly\.gradle\caches\transforms-2\files-2.1\07ec705aed5324b71d72c4292188ba58\animated-vector-drawable-28.0.0\AndroidManifest.xml:17:1-22:12
MERGED from [com.android.support:support-core-ui:28.0.0] C:\Users\folly\.gradle\caches\transforms-2\files-2.1\1334fe890717dc3473dc186f28449ae9\support-core-ui-28.0.0\AndroidManifest.xml:17:1-22:12
MERGED from [com.android.support:support-core-utils:28.0.0] C:\Users\folly\.gradle\caches\transforms-2\files-2.1\51316cf1e90ac9ba1040508849baa486\support-core-utils-28.0.0\AndroidManifest.xml:17:1-22:12
MERGED from [com.android.support:transition:28.0.0] C:\Users\folly\.gradle\caches\transforms-2\files-2.1\c5d3c2766ada7a1573158f87d282c560\transition-28.0.0\AndroidManifest.xml:17:1-22:12
MERGED from [com.android.support:support-vector-drawable:28.0.0] C:\Users\folly\.gradle\caches\transforms-2\files-2.1\eef6aeb86cd4abc591f340e9ebffbc25\support-vector-drawable-28.0.0\AndroidManifest.xml:17:1-22:12
MERGED from [com.android.support:viewpager:28.0.0] C:\Users\folly\.gradle\caches\transforms-2\files-2.1\9e47cc7119ced64ae9076bee16f6f474\viewpager-28.0.0\AndroidManifest.xml:17:1-22:12
MERGED from [com.android.support:coordinatorlayout:28.0.0] C:\Users\folly\.gradle\caches\transforms-2\files-2.1\383ad2c48ccebde577332ae7ce906c52\coordinatorlayout-28.0.0\AndroidManifest.xml:17:1-22:12
MERGED from [com.android.support:drawerlayout:28.0.0] C:\Users\folly\.gradle\caches\transforms-2\files-2.1\aabad928b9dfc3bb4f99a8e919d7ca2a\drawerlayout-28.0.0\AndroidManifest.xml:17:1-22:12
MERGED from [com.android.support:slidingpanelayout:28.0.0] C:\Users\folly\.gradle\caches\transforms-2\files-2.1\d777efb7f005f4061664eb152e4e4155\slidingpanelayout-28.0.0\AndroidManifest.xml:17:1-22:12
MERGED from [com.android.support:customview:28.0.0] C:\Users\folly\.gradle\caches\transforms-2\files-2.1\378cad5251b7bf9290fb2bb3c5781307\customview-28.0.0\AndroidManifest.xml:17:1-22:12
MERGED from [com.android.support:swiperefreshlayout:28.0.0] C:\Users\folly\.gradle\caches\transforms-2\files-2.1\a7cb32bf2478ccd8ed752b2b8a998b8f\swiperefreshlayout-28.0.0\AndroidManifest.xml:17:1-22:12
MERGED from [com.android.support:asynclayoutinflater:28.0.0] C:\Users\folly\.gradle\caches\transforms-2\files-2.1\11902811a1e20f50ecac97c485be82b1\asynclayoutinflater-28.0.0\AndroidManifest.xml:17:1-22:12
MERGED from [com.android.support:loader:28.0.0] C:\Users\folly\.gradle\caches\transforms-2\files-2.1\ad62f407f0f82b0a54b4d08f147faaa7\loader-28.0.0\AndroidManifest.xml:17:1-22:12
MERGED from [com.android.support:support-compat:28.0.0] C:\Users\folly\.gradle\caches\transforms-2\files-2.1\f14724208b5bfeeef0d6bdefe649bca7\support-compat-28.0.0\AndroidManifest.xml:17:1-24:12
MERGED from [com.android.support:cardview-v7:28.0.0] C:\Users\folly\.gradle\caches\transforms-2\files-2.1\67b0ea41bb31f1300bd726681636eb0e\cardview-v7-28.0.0\AndroidManifest.xml:17:1-22:12
MERGED from [com.android.support:versionedparcelable:28.0.0] C:\Users\folly\.gradle\caches\transforms-2\files-2.1\f993d148e999fdf956a4937ae88c6ee1\versionedparcelable-28.0.0\AndroidManifest.xml:17:1-25:12
MERGED from [com.android.support:cursoradapter:28.0.0] C:\Users\folly\.gradle\caches\transforms-2\files-2.1\16e10458eb3d86dce547be2d4dce65a9\cursoradapter-28.0.0\AndroidManifest.xml:17:1-22:12
MERGED from [android.arch.lifecycle:runtime:1.1.1] C:\Users\folly\.gradle\caches\transforms-2\files-2.1\a4cce78b48541915b29a77ed3286103c\runtime-1.1.1\AndroidManifest.xml:17:1-22:12
MERGED from [com.android.support:interpolator:28.0.0] C:\Users\folly\.gradle\caches\transforms-2\files-2.1\5e443312ff8e9912636de42e05adc2a8\interpolator-28.0.0\AndroidManifest.xml:17:1-22:12
MERGED from [com.android.support:documentfile:28.0.0] C:\Users\folly\.gradle\caches\transforms-2\files-2.1\d2514de441a98c98e63d23342e697e1c\documentfile-28.0.0\AndroidManifest.xml:17:1-22:12
MERGED from [com.android.support:localbroadcastmanager:28.0.0] C:\Users\folly\.gradle\caches\transforms-2\files-2.1\587d4b4ba2bee95fa70ebde7fdef163e\localbroadcastmanager-28.0.0\AndroidManifest.xml:17:1-22:12
MERGED from [com.android.support:print:28.0.0] C:\Users\folly\.gradle\caches\transforms-2\files-2.1\6649028815494b2aeabe1bc5c2405c56\print-28.0.0\AndroidManifest.xml:17:1-22:12
MERGED from [android.arch.lifecycle:viewmodel:1.1.1] C:\Users\folly\.gradle\caches\transforms-2\files-2.1\5e2b7336b65fd01a7d1759b63ce95e82\viewmodel-1.1.1\AndroidManifest.xml:17:1-22:12
MERGED from [android.arch.lifecycle:livedata:1.1.1] C:\Users\folly\.gradle\caches\transforms-2\files-2.1\bde0a02c7eaeb68bbbbe9daba8b5a4d3\livedata-1.1.1\AndroidManifest.xml:17:1-22:12
MERGED from [android.arch.lifecycle:livedata-core:1.1.1] C:\Users\folly\.gradle\caches\transforms-2\files-2.1\80a25cd447b6f67296c411c5c16059bb\livedata-core-1.1.1\AndroidManifest.xml:17:1-22:12
MERGED from [android.arch.core:runtime:1.1.1] C:\Users\folly\.gradle\caches\transforms-2\files-2.1\a9f3caa807bbac705342bf916bae7e9b\runtime-1.1.1\AndroidManifest.xml:17:1-22:12
MERGED from [com.makeramen:roundedimageview:2.2.1] C:\Users\folly\.gradle\caches\transforms-2\files-2.1\ed104c36955783b4ee68cb766ddffc59\roundedimageview-2.2.1\AndroidManifest.xml:2:1-9:12
INJECTED from C:\Users\folly\working\SUNMI\Transfer\P2&P2PRO payment SDK\P2&P2PRO pyament SDK\SunmiPaySdkTestDemo\app\src\main\AndroidManifest.xml:2:1-139:12
INJECTED from C:\Users\folly\working\SUNMI\Transfer\P2&P2PRO payment SDK\P2&P2PRO pyament SDK\SunmiPaySdkTestDemo\app\src\main\AndroidManifest.xml:2:1-139:12
INJECTED from C:\Users\folly\working\SUNMI\Transfer\P2&P2PRO payment SDK\P2&P2PRO pyament SDK\SunmiPaySdkTestDemo\app\src\main\AndroidManifest.xml:2:1-139:12
	package
		ADDED from C:\Users\folly\working\SUNMI\Transfer\P2&P2PRO payment SDK\P2&P2PRO pyament SDK\SunmiPaySdkTestDemo\app\src\main\AndroidManifest.xml:4:5-30
		INJECTED from C:\Users\folly\working\SUNMI\Transfer\P2&P2PRO payment SDK\P2&P2PRO pyament SDK\SunmiPaySdkTestDemo\app\src\main\AndroidManifest.xml
		INJECTED from C:\Users\folly\working\SUNMI\Transfer\P2&P2PRO payment SDK\P2&P2PRO pyament SDK\SunmiPaySdkTestDemo\app\src\main\AndroidManifest.xml
	android:versionName
		INJECTED from C:\Users\folly\working\SUNMI\Transfer\P2&P2PRO payment SDK\P2&P2PRO pyament SDK\SunmiPaySdkTestDemo\app\src\main\AndroidManifest.xml
		ADDED from C:\Users\folly\working\SUNMI\Transfer\P2&P2PRO payment SDK\P2&P2PRO pyament SDK\SunmiPaySdkTestDemo\app\src\main\AndroidManifest.xml:2:1-139:12
		INJECTED from C:\Users\folly\working\SUNMI\Transfer\P2&P2PRO payment SDK\P2&P2PRO pyament SDK\SunmiPaySdkTestDemo\app\src\main\AndroidManifest.xml
	xmlns:tools
		ADDED from C:\Users\folly\working\SUNMI\Transfer\P2&P2PRO payment SDK\P2&P2PRO pyament SDK\SunmiPaySdkTestDemo\app\src\main\AndroidManifest.xml:3:5-51
	android:versionCode
		INJECTED from C:\Users\folly\working\SUNMI\Transfer\P2&P2PRO payment SDK\P2&P2PRO pyament SDK\SunmiPaySdkTestDemo\app\src\main\AndroidManifest.xml
		ADDED from C:\Users\folly\working\SUNMI\Transfer\P2&P2PRO payment SDK\P2&P2PRO pyament SDK\SunmiPaySdkTestDemo\app\src\main\AndroidManifest.xml:2:1-139:12
		INJECTED from C:\Users\folly\working\SUNMI\Transfer\P2&P2PRO payment SDK\P2&P2PRO pyament SDK\SunmiPaySdkTestDemo\app\src\main\AndroidManifest.xml
	xmlns:android
		ADDED from C:\Users\folly\working\SUNMI\Transfer\P2&P2PRO payment SDK\P2&P2PRO pyament SDK\SunmiPaySdkTestDemo\app\src\main\AndroidManifest.xml:2:11-69
uses-permission#com.sunmi.perm.LED
ADDED from C:\Users\folly\working\SUNMI\Transfer\P2&P2PRO payment SDK\P2&P2PRO pyament SDK\SunmiPaySdkTestDemo\app\src\main\AndroidManifest.xml:6:5-58
	android:name
		ADDED from C:\Users\folly\working\SUNMI\Transfer\P2&P2PRO payment SDK\P2&P2PRO pyament SDK\SunmiPaySdkTestDemo\app\src\main\AndroidManifest.xml:6:22-55
uses-permission#com.sunmi.perm.MSR
ADDED from C:\Users\folly\working\SUNMI\Transfer\P2&P2PRO payment SDK\P2&P2PRO pyament SDK\SunmiPaySdkTestDemo\app\src\main\AndroidManifest.xml:7:5-58
	android:name
		ADDED from C:\Users\folly\working\SUNMI\Transfer\P2&P2PRO payment SDK\P2&P2PRO pyament SDK\SunmiPaySdkTestDemo\app\src\main\AndroidManifest.xml:7:22-55
uses-permission#com.sunmi.perm.ICC
ADDED from C:\Users\folly\working\SUNMI\Transfer\P2&P2PRO payment SDK\P2&P2PRO pyament SDK\SunmiPaySdkTestDemo\app\src\main\AndroidManifest.xml:8:5-58
	android:name
		ADDED from C:\Users\folly\working\SUNMI\Transfer\P2&P2PRO payment SDK\P2&P2PRO pyament SDK\SunmiPaySdkTestDemo\app\src\main\AndroidManifest.xml:8:22-55
uses-permission#com.sunmi.perm.PINPAD
ADDED from C:\Users\folly\working\SUNMI\Transfer\P2&P2PRO payment SDK\P2&P2PRO pyament SDK\SunmiPaySdkTestDemo\app\src\main\AndroidManifest.xml:9:5-61
	android:name
		ADDED from C:\Users\folly\working\SUNMI\Transfer\P2&P2PRO payment SDK\P2&P2PRO pyament SDK\SunmiPaySdkTestDemo\app\src\main\AndroidManifest.xml:9:22-58
uses-permission#com.sunmi.perm.SECURITY
ADDED from C:\Users\folly\working\SUNMI\Transfer\P2&P2PRO payment SDK\P2&P2PRO pyament SDK\SunmiPaySdkTestDemo\app\src\main\AndroidManifest.xml:10:5-63
	android:name
		ADDED from C:\Users\folly\working\SUNMI\Transfer\P2&P2PRO payment SDK\P2&P2PRO pyament SDK\SunmiPaySdkTestDemo\app\src\main\AndroidManifest.xml:10:22-60
uses-permission#com.sunmi.perm.CONTACTLESS_CARD
ADDED from C:\Users\folly\working\SUNMI\Transfer\P2&P2PRO payment SDK\P2&P2PRO pyament SDK\SunmiPaySdkTestDemo\app\src\main\AndroidManifest.xml:11:5-71
	android:name
		ADDED from C:\Users\folly\working\SUNMI\Transfer\P2&P2PRO payment SDK\P2&P2PRO pyament SDK\SunmiPaySdkTestDemo\app\src\main\AndroidManifest.xml:11:22-68
uses-permission#android.permission.SET_TIME
ADDED from C:\Users\folly\working\SUNMI\Transfer\P2&P2PRO payment SDK\P2&P2PRO pyament SDK\SunmiPaySdkTestDemo\app\src\main\AndroidManifest.xml:13:5-67
	android:name
		ADDED from C:\Users\folly\working\SUNMI\Transfer\P2&P2PRO payment SDK\P2&P2PRO pyament SDK\SunmiPaySdkTestDemo\app\src\main\AndroidManifest.xml:13:22-64
application
ADDED from C:\Users\folly\working\SUNMI\Transfer\P2&P2PRO payment SDK\P2&P2PRO pyament SDK\SunmiPaySdkTestDemo\app\src\main\AndroidManifest.xml:15:5-137:19
MERGED from [com.android.support:design:28.0.0] C:\Users\folly\.gradle\caches\transforms-2\files-2.1\2762df556eb00935af44a9cef289bcc5\design-28.0.0\AndroidManifest.xml:22:5-20
MERGED from [com.android.support:design:28.0.0] C:\Users\folly\.gradle\caches\transforms-2\files-2.1\2762df556eb00935af44a9cef289bcc5\design-28.0.0\AndroidManifest.xml:22:5-20
MERGED from [com.android.support.constraint:constraint-layout:1.1.3] C:\Users\folly\.gradle\caches\transforms-2\files-2.1\88180c2d9df321ed403965b1f5904015\constraint-layout-1.1.3\AndroidManifest.xml:9:5-20
MERGED from [com.android.support.constraint:constraint-layout:1.1.3] C:\Users\folly\.gradle\caches\transforms-2\files-2.1\88180c2d9df321ed403965b1f5904015\constraint-layout-1.1.3\AndroidManifest.xml:9:5-20
MERGED from [com.sunmi:sunmiui:1.1.27] C:\Users\folly\.gradle\caches\transforms-2\files-2.1\b6198dd446f818d5a27065717a3ed399\sunmiui-1.1.27\AndroidManifest.xml:13:5-16:19
MERGED from [com.sunmi:sunmiui:1.1.27] C:\Users\folly\.gradle\caches\transforms-2\files-2.1\b6198dd446f818d5a27065717a3ed399\sunmiui-1.1.27\AndroidManifest.xml:13:5-16:19
MERGED from [com.android.support:support-compat:28.0.0] C:\Users\folly\.gradle\caches\transforms-2\files-2.1\f14724208b5bfeeef0d6bdefe649bca7\support-compat-28.0.0\AndroidManifest.xml:22:5-94
MERGED from [com.android.support:support-compat:28.0.0] C:\Users\folly\.gradle\caches\transforms-2\files-2.1\f14724208b5bfeeef0d6bdefe649bca7\support-compat-28.0.0\AndroidManifest.xml:22:5-94
MERGED from [com.android.support:versionedparcelable:28.0.0] C:\Users\folly\.gradle\caches\transforms-2\files-2.1\f993d148e999fdf956a4937ae88c6ee1\versionedparcelable-28.0.0\AndroidManifest.xml:22:5-23:19
MERGED from [com.android.support:versionedparcelable:28.0.0] C:\Users\folly\.gradle\caches\transforms-2\files-2.1\f993d148e999fdf956a4937ae88c6ee1\versionedparcelable-28.0.0\AndroidManifest.xml:22:5-23:19
	android:appComponentFactory
		ADDED from [com.android.support:support-compat:28.0.0] C:\Users\folly\.gradle\caches\transforms-2\files-2.1\f14724208b5bfeeef0d6bdefe649bca7\support-compat-28.0.0\AndroidManifest.xml:22:18-91
	android:supportsRtl
		ADDED from C:\Users\folly\working\SUNMI\Transfer\P2&P2PRO payment SDK\P2&P2PRO pyament SDK\SunmiPaySdkTestDemo\app\src\main\AndroidManifest.xml:21:9-35
	android:label
		ADDED from C:\Users\folly\working\SUNMI\Transfer\P2&P2PRO payment SDK\P2&P2PRO pyament SDK\SunmiPaySdkTestDemo\app\src\main\AndroidManifest.xml:19:9-41
	tools:ignore
		ADDED from C:\Users\folly\working\SUNMI\Transfer\P2&P2PRO payment SDK\P2&P2PRO pyament SDK\SunmiPaySdkTestDemo\app\src\main\AndroidManifest.xml:23:9-48
	android:roundIcon
		ADDED from C:\Users\folly\working\SUNMI\Transfer\P2&P2PRO payment SDK\P2&P2PRO pyament SDK\SunmiPaySdkTestDemo\app\src\main\AndroidManifest.xml:20:9-54
	android:icon
		ADDED from C:\Users\folly\working\SUNMI\Transfer\P2&P2PRO payment SDK\P2&P2PRO pyament SDK\SunmiPaySdkTestDemo\app\src\main\AndroidManifest.xml:18:9-43
	android:allowBackup
		ADDED from C:\Users\folly\working\SUNMI\Transfer\P2&P2PRO payment SDK\P2&P2PRO pyament SDK\SunmiPaySdkTestDemo\app\src\main\AndroidManifest.xml:17:9-35
	android:theme
		ADDED from C:\Users\folly\working\SUNMI\Transfer\P2&P2PRO payment SDK\P2&P2PRO pyament SDK\SunmiPaySdkTestDemo\app\src\main\AndroidManifest.xml:22:9-40
	android:name
		ADDED from C:\Users\folly\working\SUNMI\Transfer\P2&P2PRO payment SDK\P2&P2PRO pyament SDK\SunmiPaySdkTestDemo\app\src\main\AndroidManifest.xml:16:9-38
activity#com.sm.sdk.demo.MainActivity
ADDED from C:\Users\folly\working\SUNMI\Transfer\P2&P2PRO payment SDK\P2&P2PRO pyament SDK\SunmiPaySdkTestDemo\app\src\main\AndroidManifest.xml:24:9-30:20
	android:name
		ADDED from C:\Users\folly\working\SUNMI\Transfer\P2&P2PRO payment SDK\P2&P2PRO pyament SDK\SunmiPaySdkTestDemo\app\src\main\AndroidManifest.xml:24:19-47
intent-filter#action:name:android.intent.action.MAIN+category:name:android.intent.category.LAUNCHER
ADDED from C:\Users\folly\working\SUNMI\Transfer\P2&P2PRO payment SDK\P2&P2PRO pyament SDK\SunmiPaySdkTestDemo\app\src\main\AndroidManifest.xml:25:13-29:29
action#android.intent.action.MAIN
ADDED from C:\Users\folly\working\SUNMI\Transfer\P2&P2PRO payment SDK\P2&P2PRO pyament SDK\SunmiPaySdkTestDemo\app\src\main\AndroidManifest.xml:26:17-69
	android:name
		ADDED from C:\Users\folly\working\SUNMI\Transfer\P2&P2PRO payment SDK\P2&P2PRO pyament SDK\SunmiPaySdkTestDemo\app\src\main\AndroidManifest.xml:26:25-66
category#android.intent.category.LAUNCHER
ADDED from C:\Users\folly\working\SUNMI\Transfer\P2&P2PRO payment SDK\P2&P2PRO pyament SDK\SunmiPaySdkTestDemo\app\src\main\AndroidManifest.xml:28:17-77
	android:name
		ADDED from C:\Users\folly\working\SUNMI\Transfer\P2&P2PRO payment SDK\P2&P2PRO pyament SDK\SunmiPaySdkTestDemo\app\src\main\AndroidManifest.xml:28:27-74
activity#com.sm.sdk.demo.basic.LedActivity
ADDED from C:\Users\folly\working\SUNMI\Transfer\P2&P2PRO payment SDK\P2&P2PRO pyament SDK\SunmiPaySdkTestDemo\app\src\main\AndroidManifest.xml:32:9-55
	android:name
		ADDED from C:\Users\folly\working\SUNMI\Transfer\P2&P2PRO payment SDK\P2&P2PRO pyament SDK\SunmiPaySdkTestDemo\app\src\main\AndroidManifest.xml:32:19-52
activity#com.sm.sdk.demo.basic.BasicActivity
ADDED from C:\Users\folly\working\SUNMI\Transfer\P2&P2PRO payment SDK\P2&P2PRO pyament SDK\SunmiPaySdkTestDemo\app\src\main\AndroidManifest.xml:33:9-57
	android:name
		ADDED from C:\Users\folly\working\SUNMI\Transfer\P2&P2PRO payment SDK\P2&P2PRO pyament SDK\SunmiPaySdkTestDemo\app\src\main\AndroidManifest.xml:33:19-54
activity#com.sm.sdk.demo.basic.BuzzerActivity
ADDED from C:\Users\folly\working\SUNMI\Transfer\P2&P2PRO payment SDK\P2&P2PRO pyament SDK\SunmiPaySdkTestDemo\app\src\main\AndroidManifest.xml:34:9-58
	android:name
		ADDED from C:\Users\folly\working\SUNMI\Transfer\P2&P2PRO payment SDK\P2&P2PRO pyament SDK\SunmiPaySdkTestDemo\app\src\main\AndroidManifest.xml:34:19-55
activity#com.sm.sdk.demo.basic.GetSysParamActivity
ADDED from C:\Users\folly\working\SUNMI\Transfer\P2&P2PRO payment SDK\P2&P2PRO pyament SDK\SunmiPaySdkTestDemo\app\src\main\AndroidManifest.xml:35:9-63
	android:name
		ADDED from C:\Users\folly\working\SUNMI\Transfer\P2&P2PRO payment SDK\P2&P2PRO pyament SDK\SunmiPaySdkTestDemo\app\src\main\AndroidManifest.xml:35:19-60
activity#com.sm.sdk.demo.basic.SetSysParamActivity
ADDED from C:\Users\folly\working\SUNMI\Transfer\P2&P2PRO payment SDK\P2&P2PRO pyament SDK\SunmiPaySdkTestDemo\app\src\main\AndroidManifest.xml:36:9-63
	android:name
		ADDED from C:\Users\folly\working\SUNMI\Transfer\P2&P2PRO payment SDK\P2&P2PRO pyament SDK\SunmiPaySdkTestDemo\app\src\main\AndroidManifest.xml:36:19-60
activity#com.sm.sdk.demo.basic.ScreenModelActivity
ADDED from C:\Users\folly\working\SUNMI\Transfer\P2&P2PRO payment SDK\P2&P2PRO pyament SDK\SunmiPaySdkTestDemo\app\src\main\AndroidManifest.xml:37:9-63
	android:name
		ADDED from C:\Users\folly\working\SUNMI\Transfer\P2&P2PRO payment SDK\P2&P2PRO pyament SDK\SunmiPaySdkTestDemo\app\src\main\AndroidManifest.xml:37:19-60
activity#com.sm.sdk.demo.card.CardActivity
ADDED from C:\Users\folly\working\SUNMI\Transfer\P2&P2PRO payment SDK\P2&P2PRO pyament SDK\SunmiPaySdkTestDemo\app\src\main\AndroidManifest.xml:39:9-55
	android:name
		ADDED from C:\Users\folly\working\SUNMI\Transfer\P2&P2PRO payment SDK\P2&P2PRO pyament SDK\SunmiPaySdkTestDemo\app\src\main\AndroidManifest.xml:39:19-52
activity#com.sm.sdk.demo.card.MagActivity
ADDED from C:\Users\folly\working\SUNMI\Transfer\P2&P2PRO payment SDK\P2&P2PRO pyament SDK\SunmiPaySdkTestDemo\app\src\main\AndroidManifest.xml:40:9-54
	android:name
		ADDED from C:\Users\folly\working\SUNMI\Transfer\P2&P2PRO payment SDK\P2&P2PRO pyament SDK\SunmiPaySdkTestDemo\app\src\main\AndroidManifest.xml:40:19-51
activity#com.sm.sdk.demo.card.MagEncActivity
ADDED from C:\Users\folly\working\SUNMI\Transfer\P2&P2PRO payment SDK\P2&P2PRO pyament SDK\SunmiPaySdkTestDemo\app\src\main\AndroidManifest.xml:41:9-57
	android:name
		ADDED from C:\Users\folly\working\SUNMI\Transfer\P2&P2PRO payment SDK\P2&P2PRO pyament SDK\SunmiPaySdkTestDemo\app\src\main\AndroidManifest.xml:41:19-54
activity#com.sm.sdk.demo.card.ICActivity
ADDED from C:\Users\folly\working\SUNMI\Transfer\P2&P2PRO payment SDK\P2&P2PRO pyament SDK\SunmiPaySdkTestDemo\app\src\main\AndroidManifest.xml:42:9-53
	android:name
		ADDED from C:\Users\folly\working\SUNMI\Transfer\P2&P2PRO payment SDK\P2&P2PRO pyament SDK\SunmiPaySdkTestDemo\app\src\main\AndroidManifest.xml:42:19-50
activity#com.sm.sdk.demo.card.M1Activity
ADDED from C:\Users\folly\working\SUNMI\Transfer\P2&P2PRO payment SDK\P2&P2PRO pyament SDK\SunmiPaySdkTestDemo\app\src\main\AndroidManifest.xml:43:9-53
	android:name
		ADDED from C:\Users\folly\working\SUNMI\Transfer\P2&P2PRO payment SDK\P2&P2PRO pyament SDK\SunmiPaySdkTestDemo\app\src\main\AndroidManifest.xml:43:19-50
activity#com.sm.sdk.demo.card.SAMActivity
ADDED from C:\Users\folly\working\SUNMI\Transfer\P2&P2PRO payment SDK\P2&P2PRO pyament SDK\SunmiPaySdkTestDemo\app\src\main\AndroidManifest.xml:44:9-47:57
	android:screenOrientation
		ADDED from C:\Users\folly\working\SUNMI\Transfer\P2&P2PRO payment SDK\P2&P2PRO pyament SDK\SunmiPaySdkTestDemo\app\src\main\AndroidManifest.xml:46:13-49
	android:windowSoftInputMode
		ADDED from C:\Users\folly\working\SUNMI\Transfer\P2&P2PRO payment SDK\P2&P2PRO pyament SDK\SunmiPaySdkTestDemo\app\src\main\AndroidManifest.xml:47:13-54
	android:name
		ADDED from C:\Users\folly\working\SUNMI\Transfer\P2&P2PRO payment SDK\P2&P2PRO pyament SDK\SunmiPaySdkTestDemo\app\src\main\AndroidManifest.xml:45:13-45
activity#com.sm.sdk.demo.card.FELICAActivity
ADDED from C:\Users\folly\working\SUNMI\Transfer\P2&P2PRO payment SDK\P2&P2PRO pyament SDK\SunmiPaySdkTestDemo\app\src\main\AndroidManifest.xml:48:9-57
	android:name
		ADDED from C:\Users\folly\working\SUNMI\Transfer\P2&P2PRO payment SDK\P2&P2PRO pyament SDK\SunmiPaySdkTestDemo\app\src\main\AndroidManifest.xml:48:19-54
activity#com.sm.sdk.demo.card.MifareUltralightCActivity
ADDED from C:\Users\folly\working\SUNMI\Transfer\P2&P2PRO payment SDK\P2&P2PRO pyament SDK\SunmiPaySdkTestDemo\app\src\main\AndroidManifest.xml:49:9-68
	android:name
		ADDED from C:\Users\folly\working\SUNMI\Transfer\P2&P2PRO payment SDK\P2&P2PRO pyament SDK\SunmiPaySdkTestDemo\app\src\main\AndroidManifest.xml:49:19-65
activity#com.sm.sdk.demo.card.MifareUtralightEv1Activity
ADDED from C:\Users\folly\working\SUNMI\Transfer\P2&P2PRO payment SDK\P2&P2PRO pyament SDK\SunmiPaySdkTestDemo\app\src\main\AndroidManifest.xml:50:9-69
	android:name
		ADDED from C:\Users\folly\working\SUNMI\Transfer\P2&P2PRO payment SDK\P2&P2PRO pyament SDK\SunmiPaySdkTestDemo\app\src\main\AndroidManifest.xml:50:19-66
activity#com.sm.sdk.demo.card.MifareDesfireEv2Activity
ADDED from C:\Users\folly\working\SUNMI\Transfer\P2&P2PRO payment SDK\P2&P2PRO pyament SDK\SunmiPaySdkTestDemo\app\src\main\AndroidManifest.xml:51:9-67
	android:name
		ADDED from C:\Users\folly\working\SUNMI\Transfer\P2&P2PRO payment SDK\P2&P2PRO pyament SDK\SunmiPaySdkTestDemo\app\src\main\AndroidManifest.xml:51:19-64
activity#com.sm.sdk.demo.card.NormalApduActivity
ADDED from C:\Users\folly\working\SUNMI\Transfer\P2&P2PRO payment SDK\P2&P2PRO pyament SDK\SunmiPaySdkTestDemo\app\src\main\AndroidManifest.xml:52:9-54:57
	android:windowSoftInputMode
		ADDED from C:\Users\folly\working\SUNMI\Transfer\P2&P2PRO payment SDK\P2&P2PRO pyament SDK\SunmiPaySdkTestDemo\app\src\main\AndroidManifest.xml:54:13-54
	android:name
		ADDED from C:\Users\folly\working\SUNMI\Transfer\P2&P2PRO payment SDK\P2&P2PRO pyament SDK\SunmiPaySdkTestDemo\app\src\main\AndroidManifest.xml:53:13-52
activity#com.sm.sdk.demo.card.TransmitApduActivity
ADDED from C:\Users\folly\working\SUNMI\Transfer\P2&P2PRO payment SDK\P2&P2PRO pyament SDK\SunmiPaySdkTestDemo\app\src\main\AndroidManifest.xml:55:9-57:57
	android:windowSoftInputMode
		ADDED from C:\Users\folly\working\SUNMI\Transfer\P2&P2PRO payment SDK\P2&P2PRO pyament SDK\SunmiPaySdkTestDemo\app\src\main\AndroidManifest.xml:57:13-54
	android:name
		ADDED from C:\Users\folly\working\SUNMI\Transfer\P2&P2PRO payment SDK\P2&P2PRO pyament SDK\SunmiPaySdkTestDemo\app\src\main\AndroidManifest.xml:56:13-54
activity#com.sm.sdk.demo.card.MifarePlusActivity
ADDED from C:\Users\folly\working\SUNMI\Transfer\P2&P2PRO payment SDK\P2&P2PRO pyament SDK\SunmiPaySdkTestDemo\app\src\main\AndroidManifest.xml:59:9-61
	android:name
		ADDED from C:\Users\folly\working\SUNMI\Transfer\P2&P2PRO payment SDK\P2&P2PRO pyament SDK\SunmiPaySdkTestDemo\app\src\main\AndroidManifest.xml:59:19-58
activity#com.sm.sdk.demo.card.MifareAuthedByPSAMActivity
ADDED from C:\Users\folly\working\SUNMI\Transfer\P2&P2PRO payment SDK\P2&P2PRO pyament SDK\SunmiPaySdkTestDemo\app\src\main\AndroidManifest.xml:60:9-69
	android:name
		ADDED from C:\Users\folly\working\SUNMI\Transfer\P2&P2PRO payment SDK\P2&P2PRO pyament SDK\SunmiPaySdkTestDemo\app\src\main\AndroidManifest.xml:60:19-66
activity#com.sm.sdk.demo.card.SLE4442_4428Actviity
ADDED from C:\Users\folly\working\SUNMI\Transfer\P2&P2PRO payment SDK\P2&P2PRO pyament SDK\SunmiPaySdkTestDemo\app\src\main\AndroidManifest.xml:61:9-63
	android:name
		ADDED from C:\Users\folly\working\SUNMI\Transfer\P2&P2PRO payment SDK\P2&P2PRO pyament SDK\SunmiPaySdkTestDemo\app\src\main\AndroidManifest.xml:61:19-60
activity#com.sm.sdk.demo.card.AT24CActivity
ADDED from C:\Users\folly\working\SUNMI\Transfer\P2&P2PRO payment SDK\P2&P2PRO pyament SDK\SunmiPaySdkTestDemo\app\src\main\AndroidManifest.xml:62:9-56
	android:name
		ADDED from C:\Users\folly\working\SUNMI\Transfer\P2&P2PRO payment SDK\P2&P2PRO pyament SDK\SunmiPaySdkTestDemo\app\src\main\AndroidManifest.xml:62:19-53
activity#com.sm.sdk.demo.card.AT88SCActivity
ADDED from C:\Users\folly\working\SUNMI\Transfer\P2&P2PRO payment SDK\P2&P2PRO pyament SDK\SunmiPaySdkTestDemo\app\src\main\AndroidManifest.xml:63:9-57
	android:name
		ADDED from C:\Users\folly\working\SUNMI\Transfer\P2&P2PRO payment SDK\P2&P2PRO pyament SDK\SunmiPaySdkTestDemo\app\src\main\AndroidManifest.xml:63:19-54
activity#com.sm.sdk.demo.card.CTX512Activity
ADDED from C:\Users\folly\working\SUNMI\Transfer\P2&P2PRO payment SDK\P2&P2PRO pyament SDK\SunmiPaySdkTestDemo\app\src\main\AndroidManifest.xml:64:9-57
	android:name
		ADDED from C:\Users\folly\working\SUNMI\Transfer\P2&P2PRO payment SDK\P2&P2PRO pyament SDK\SunmiPaySdkTestDemo\app\src\main\AndroidManifest.xml:64:19-54
activity#com.sm.sdk.demo.card.CtrCodeAndMultiApduActivity
ADDED from C:\Users\folly\working\SUNMI\Transfer\P2&P2PRO payment SDK\P2&P2PRO pyament SDK\SunmiPaySdkTestDemo\app\src\main\AndroidManifest.xml:65:9-70
	android:name
		ADDED from C:\Users\folly\working\SUNMI\Transfer\P2&P2PRO payment SDK\P2&P2PRO pyament SDK\SunmiPaySdkTestDemo\app\src\main\AndroidManifest.xml:65:19-67
activity#com.sm.sdk.demo.security.SecurityActivity
ADDED from C:\Users\folly\working\SUNMI\Transfer\P2&P2PRO payment SDK\P2&P2PRO pyament SDK\SunmiPaySdkTestDemo\app\src\main\AndroidManifest.xml:67:9-63
	android:name
		ADDED from C:\Users\folly\working\SUNMI\Transfer\P2&P2PRO payment SDK\P2&P2PRO pyament SDK\SunmiPaySdkTestDemo\app\src\main\AndroidManifest.xml:67:19-60
activity#com.sm.sdk.demo.security.SaveKeyPlainTextActivity
ADDED from C:\Users\folly\working\SUNMI\Transfer\P2&P2PRO payment SDK\P2&P2PRO pyament SDK\SunmiPaySdkTestDemo\app\src\main\AndroidManifest.xml:68:9-71
	android:name
		ADDED from C:\Users\folly\working\SUNMI\Transfer\P2&P2PRO payment SDK\P2&P2PRO pyament SDK\SunmiPaySdkTestDemo\app\src\main\AndroidManifest.xml:68:19-68
activity#com.sm.sdk.demo.security.SaveKeyCipherTextActivity
ADDED from C:\Users\folly\working\SUNMI\Transfer\P2&P2PRO payment SDK\P2&P2PRO pyament SDK\SunmiPaySdkTestDemo\app\src\main\AndroidManifest.xml:69:9-72
	android:name
		ADDED from C:\Users\folly\working\SUNMI\Transfer\P2&P2PRO payment SDK\P2&P2PRO pyament SDK\SunmiPaySdkTestDemo\app\src\main\AndroidManifest.xml:69:19-69
activity#com.sm.sdk.demo.security.InjectPlainTextKeyActivity
ADDED from C:\Users\folly\working\SUNMI\Transfer\P2&P2PRO payment SDK\P2&P2PRO pyament SDK\SunmiPaySdkTestDemo\app\src\main\AndroidManifest.xml:70:9-73
	android:name
		ADDED from C:\Users\folly\working\SUNMI\Transfer\P2&P2PRO payment SDK\P2&P2PRO pyament SDK\SunmiPaySdkTestDemo\app\src\main\AndroidManifest.xml:70:19-70
activity#com.sm.sdk.demo.security.InjectCiphertextKeyActivity
ADDED from C:\Users\folly\working\SUNMI\Transfer\P2&P2PRO payment SDK\P2&P2PRO pyament SDK\SunmiPaySdkTestDemo\app\src\main\AndroidManifest.xml:71:9-74
	android:name
		ADDED from C:\Users\folly\working\SUNMI\Transfer\P2&P2PRO payment SDK\P2&P2PRO pyament SDK\SunmiPaySdkTestDemo\app\src\main\AndroidManifest.xml:71:19-71
activity#com.sm.sdk.demo.security.CalcMacActivity
ADDED from C:\Users\folly\working\SUNMI\Transfer\P2&P2PRO payment SDK\P2&P2PRO pyament SDK\SunmiPaySdkTestDemo\app\src\main\AndroidManifest.xml:72:9-62
	android:name
		ADDED from C:\Users\folly\working\SUNMI\Transfer\P2&P2PRO payment SDK\P2&P2PRO pyament SDK\SunmiPaySdkTestDemo\app\src\main\AndroidManifest.xml:72:19-59
activity#com.sm.sdk.demo.security.DataEncryptActivity
ADDED from C:\Users\folly\working\SUNMI\Transfer\P2&P2PRO payment SDK\P2&P2PRO pyament SDK\SunmiPaySdkTestDemo\app\src\main\AndroidManifest.xml:73:9-66
	android:name
		ADDED from C:\Users\folly\working\SUNMI\Transfer\P2&P2PRO payment SDK\P2&P2PRO pyament SDK\SunmiPaySdkTestDemo\app\src\main\AndroidManifest.xml:73:19-63
activity#com.sm.sdk.demo.security.DataDecryptActivity
ADDED from C:\Users\folly\working\SUNMI\Transfer\P2&P2PRO payment SDK\P2&P2PRO pyament SDK\SunmiPaySdkTestDemo\app\src\main\AndroidManifest.xml:74:9-66
	android:name
		ADDED from C:\Users\folly\working\SUNMI\Transfer\P2&P2PRO payment SDK\P2&P2PRO pyament SDK\SunmiPaySdkTestDemo\app\src\main\AndroidManifest.xml:74:19-63
activity#com.sm.sdk.demo.security.GetEncryptBySerialNumberActivity
ADDED from C:\Users\folly\working\SUNMI\Transfer\P2&P2PRO payment SDK\P2&P2PRO pyament SDK\SunmiPaySdkTestDemo\app\src\main\AndroidManifest.xml:75:9-79
	android:name
		ADDED from C:\Users\folly\working\SUNMI\Transfer\P2&P2PRO payment SDK\P2&P2PRO pyament SDK\SunmiPaySdkTestDemo\app\src\main\AndroidManifest.xml:75:19-76
activity#com.sm.sdk.demo.security.DuKptSaveKeyActivity
ADDED from C:\Users\folly\working\SUNMI\Transfer\P2&P2PRO payment SDK\P2&P2PRO pyament SDK\SunmiPaySdkTestDemo\app\src\main\AndroidManifest.xml:76:9-67
	android:name
		ADDED from C:\Users\folly\working\SUNMI\Transfer\P2&P2PRO payment SDK\P2&P2PRO pyament SDK\SunmiPaySdkTestDemo\app\src\main\AndroidManifest.xml:76:19-64
activity#com.sm.sdk.demo.security.DuKptCalcMacActivity
ADDED from C:\Users\folly\working\SUNMI\Transfer\P2&P2PRO payment SDK\P2&P2PRO pyament SDK\SunmiPaySdkTestDemo\app\src\main\AndroidManifest.xml:77:9-67
	android:name
		ADDED from C:\Users\folly\working\SUNMI\Transfer\P2&P2PRO payment SDK\P2&P2PRO pyament SDK\SunmiPaySdkTestDemo\app\src\main\AndroidManifest.xml:77:19-64
activity#com.sm.sdk.demo.security.DuKptDataEncryptActivity
ADDED from C:\Users\folly\working\SUNMI\Transfer\P2&P2PRO payment SDK\P2&P2PRO pyament SDK\SunmiPaySdkTestDemo\app\src\main\AndroidManifest.xml:78:9-71
	android:name
		ADDED from C:\Users\folly\working\SUNMI\Transfer\P2&P2PRO payment SDK\P2&P2PRO pyament SDK\SunmiPaySdkTestDemo\app\src\main\AndroidManifest.xml:78:19-68
activity#com.sm.sdk.demo.security.DuKptDataDecryptActivity
ADDED from C:\Users\folly\working\SUNMI\Transfer\P2&P2PRO payment SDK\P2&P2PRO pyament SDK\SunmiPaySdkTestDemo\app\src\main\AndroidManifest.xml:79:9-71
	android:name
		ADDED from C:\Users\folly\working\SUNMI\Transfer\P2&P2PRO payment SDK\P2&P2PRO pyament SDK\SunmiPaySdkTestDemo\app\src\main\AndroidManifest.xml:79:19-68
activity#com.sm.sdk.demo.security.DuKptKSNOperateActivity
ADDED from C:\Users\folly\working\SUNMI\Transfer\P2&P2PRO payment SDK\P2&P2PRO pyament SDK\SunmiPaySdkTestDemo\app\src\main\AndroidManifest.xml:80:9-70
	android:name
		ADDED from C:\Users\folly\working\SUNMI\Transfer\P2&P2PRO payment SDK\P2&P2PRO pyament SDK\SunmiPaySdkTestDemo\app\src\main\AndroidManifest.xml:80:19-67
activity#com.sm.sdk.demo.security.RSATestActivity
ADDED from C:\Users\folly\working\SUNMI\Transfer\P2&P2PRO payment SDK\P2&P2PRO pyament SDK\SunmiPaySdkTestDemo\app\src\main\AndroidManifest.xml:81:9-62
	android:name
		ADDED from C:\Users\folly\working\SUNMI\Transfer\P2&P2PRO payment SDK\P2&P2PRO pyament SDK\SunmiPaySdkTestDemo\app\src\main\AndroidManifest.xml:81:19-59
activity#com.sm.sdk.demo.security.SaveTR31KeyActivity
ADDED from C:\Users\folly\working\SUNMI\Transfer\P2&P2PRO payment SDK\P2&P2PRO pyament SDK\SunmiPaySdkTestDemo\app\src\main\AndroidManifest.xml:82:9-66
	android:name
		ADDED from C:\Users\folly\working\SUNMI\Transfer\P2&P2PRO payment SDK\P2&P2PRO pyament SDK\SunmiPaySdkTestDemo\app\src\main\AndroidManifest.xml:82:19-63
activity#com.sm.sdk.demo.security.DeleteKeyActivity
ADDED from C:\Users\folly\working\SUNMI\Transfer\P2&P2PRO payment SDK\P2&P2PRO pyament SDK\SunmiPaySdkTestDemo\app\src\main\AndroidManifest.xml:83:9-64
	android:name
		ADDED from C:\Users\folly\working\SUNMI\Transfer\P2&P2PRO payment SDK\P2&P2PRO pyament SDK\SunmiPaySdkTestDemo\app\src\main\AndroidManifest.xml:83:19-61
activity#com.sm.sdk.demo.security.DuKptAesSaveKeyActivity
ADDED from C:\Users\folly\working\SUNMI\Transfer\P2&P2PRO payment SDK\P2&P2PRO pyament SDK\SunmiPaySdkTestDemo\app\src\main\AndroidManifest.xml:84:9-70
	android:name
		ADDED from C:\Users\folly\working\SUNMI\Transfer\P2&P2PRO payment SDK\P2&P2PRO pyament SDK\SunmiPaySdkTestDemo\app\src\main\AndroidManifest.xml:84:19-67
activity#com.sm.sdk.demo.security.SM2TestActivity
ADDED from C:\Users\folly\working\SUNMI\Transfer\P2&P2PRO payment SDK\P2&P2PRO pyament SDK\SunmiPaySdkTestDemo\app\src\main\AndroidManifest.xml:85:9-62
	android:name
		ADDED from C:\Users\folly\working\SUNMI\Transfer\P2&P2PRO payment SDK\P2&P2PRO pyament SDK\SunmiPaySdkTestDemo\app\src\main\AndroidManifest.xml:85:19-59
activity#com.sm.sdk.demo.security.CalcHashActivity
ADDED from C:\Users\folly\working\SUNMI\Transfer\P2&P2PRO payment SDK\P2&P2PRO pyament SDK\SunmiPaySdkTestDemo\app\src\main\AndroidManifest.xml:86:9-63
	android:name
		ADDED from C:\Users\folly\working\SUNMI\Transfer\P2&P2PRO payment SDK\P2&P2PRO pyament SDK\SunmiPaySdkTestDemo\app\src\main\AndroidManifest.xml:86:19-60
activity#com.sm.sdk.demo.security.GetKeyCheckValueActivity
ADDED from C:\Users\folly\working\SUNMI\Transfer\P2&P2PRO payment SDK\P2&P2PRO pyament SDK\SunmiPaySdkTestDemo\app\src\main\AndroidManifest.xml:87:9-71
	android:name
		ADDED from C:\Users\folly\working\SUNMI\Transfer\P2&P2PRO payment SDK\P2&P2PRO pyament SDK\SunmiPaySdkTestDemo\app\src\main\AndroidManifest.xml:87:19-68
activity#com.sm.sdk.demo.pin.PinPadActivity
ADDED from C:\Users\folly\working\SUNMI\Transfer\P2&P2PRO payment SDK\P2&P2PRO pyament SDK\SunmiPaySdkTestDemo\app\src\main\AndroidManifest.xml:89:9-56
	android:name
		ADDED from C:\Users\folly\working\SUNMI\Transfer\P2&P2PRO payment SDK\P2&P2PRO pyament SDK\SunmiPaySdkTestDemo\app\src\main\AndroidManifest.xml:89:19-53
activity#com.sm.sdk.demo.pin.CustomPinPadActivity
ADDED from C:\Users\folly\working\SUNMI\Transfer\P2&P2PRO payment SDK\P2&P2PRO pyament SDK\SunmiPaySdkTestDemo\app\src\main\AndroidManifest.xml:90:9-62
	android:name
		ADDED from C:\Users\folly\working\SUNMI\Transfer\P2&P2PRO payment SDK\P2&P2PRO pyament SDK\SunmiPaySdkTestDemo\app\src\main\AndroidManifest.xml:90:19-59
activity#com.sm.sdk.demo.emv.EMVActivity
ADDED from C:\Users\folly\working\SUNMI\Transfer\P2&P2PRO payment SDK\P2&P2PRO pyament SDK\SunmiPaySdkTestDemo\app\src\main\AndroidManifest.xml:92:9-53
	android:name
		ADDED from C:\Users\folly\working\SUNMI\Transfer\P2&P2PRO payment SDK\P2&P2PRO pyament SDK\SunmiPaySdkTestDemo\app\src\main\AndroidManifest.xml:92:19-50
activity#com.sm.sdk.demo.emv.ICProcessActivity
ADDED from C:\Users\folly\working\SUNMI\Transfer\P2&P2PRO payment SDK\P2&P2PRO pyament SDK\SunmiPaySdkTestDemo\app\src\main\AndroidManifest.xml:93:9-59
	android:name
		ADDED from C:\Users\folly\working\SUNMI\Transfer\P2&P2PRO payment SDK\P2&P2PRO pyament SDK\SunmiPaySdkTestDemo\app\src\main\AndroidManifest.xml:93:19-56
activity#com.sm.sdk.demo.emv.RuPayCardActivity
ADDED from C:\Users\folly\working\SUNMI\Transfer\P2&P2PRO payment SDK\P2&P2PRO pyament SDK\SunmiPaySdkTestDemo\app\src\main\AndroidManifest.xml:94:9-59
	android:name
		ADDED from C:\Users\folly\working\SUNMI\Transfer\P2&P2PRO payment SDK\P2&P2PRO pyament SDK\SunmiPaySdkTestDemo\app\src\main\AndroidManifest.xml:94:19-56
activity#com.sm.sdk.demo.emv.MagProcessActivity
ADDED from C:\Users\folly\working\SUNMI\Transfer\P2&P2PRO payment SDK\P2&P2PRO pyament SDK\SunmiPaySdkTestDemo\app\src\main\AndroidManifest.xml:95:9-60
	android:name
		ADDED from C:\Users\folly\working\SUNMI\Transfer\P2&P2PRO payment SDK\P2&P2PRO pyament SDK\SunmiPaySdkTestDemo\app\src\main\AndroidManifest.xml:95:19-57
activity#com.sm.sdk.demo.emv.EmvOtherActivity
ADDED from C:\Users\folly\working\SUNMI\Transfer\P2&P2PRO payment SDK\P2&P2PRO pyament SDK\SunmiPaySdkTestDemo\app\src\main\AndroidManifest.xml:96:9-58
	android:name
		ADDED from C:\Users\folly\working\SUNMI\Transfer\P2&P2PRO payment SDK\P2&P2PRO pyament SDK\SunmiPaySdkTestDemo\app\src\main\AndroidManifest.xml:96:19-55
activity#com.sm.sdk.demo.emv.EMVTestSaveAidCapkActivity
ADDED from C:\Users\folly\working\SUNMI\Transfer\P2&P2PRO payment SDK\P2&P2PRO pyament SDK\SunmiPaySdkTestDemo\app\src\main\AndroidManifest.xml:97:9-68
	android:name
		ADDED from C:\Users\folly\working\SUNMI\Transfer\P2&P2PRO payment SDK\P2&P2PRO pyament SDK\SunmiPaySdkTestDemo\app\src\main\AndroidManifest.xml:97:19-65
activity#com.sm.sdk.demo.tax.TaxTestActivity
ADDED from C:\Users\folly\working\SUNMI\Transfer\P2&P2PRO payment SDK\P2&P2PRO pyament SDK\SunmiPaySdkTestDemo\app\src\main\AndroidManifest.xml:99:9-57
	android:name
		ADDED from C:\Users\folly\working\SUNMI\Transfer\P2&P2PRO payment SDK\P2&P2PRO pyament SDK\SunmiPaySdkTestDemo\app\src\main\AndroidManifest.xml:99:19-54
activity#com.sm.sdk.demo.print.PrintActivity
ADDED from C:\Users\folly\working\SUNMI\Transfer\P2&P2PRO payment SDK\P2&P2PRO pyament SDK\SunmiPaySdkTestDemo\app\src\main\AndroidManifest.xml:101:9-57
	android:name
		ADDED from C:\Users\folly\working\SUNMI\Transfer\P2&P2PRO payment SDK\P2&P2PRO pyament SDK\SunmiPaySdkTestDemo\app\src\main\AndroidManifest.xml:101:19-54
activity#com.sm.sdk.demo.print.PrintTextActivity
ADDED from C:\Users\folly\working\SUNMI\Transfer\P2&P2PRO payment SDK\P2&P2PRO pyament SDK\SunmiPaySdkTestDemo\app\src\main\AndroidManifest.xml:102:9-61
	android:name
		ADDED from C:\Users\folly\working\SUNMI\Transfer\P2&P2PRO payment SDK\P2&P2PRO pyament SDK\SunmiPaySdkTestDemo\app\src\main\AndroidManifest.xml:102:19-58
activity#com.sm.sdk.demo.print.PrintConfigActivity
ADDED from C:\Users\folly\working\SUNMI\Transfer\P2&P2PRO payment SDK\P2&P2PRO pyament SDK\SunmiPaySdkTestDemo\app\src\main\AndroidManifest.xml:103:9-63
	android:name
		ADDED from C:\Users\folly\working\SUNMI\Transfer\P2&P2PRO payment SDK\P2&P2PRO pyament SDK\SunmiPaySdkTestDemo\app\src\main\AndroidManifest.xml:103:19-60
activity#com.sm.sdk.demo.print.PrintBitmapActivity
ADDED from C:\Users\folly\working\SUNMI\Transfer\P2&P2PRO payment SDK\P2&P2PRO pyament SDK\SunmiPaySdkTestDemo\app\src\main\AndroidManifest.xml:104:9-63
	android:name
		ADDED from C:\Users\folly\working\SUNMI\Transfer\P2&P2PRO payment SDK\P2&P2PRO pyament SDK\SunmiPaySdkTestDemo\app\src\main\AndroidManifest.xml:104:19-60
activity#com.sm.sdk.demo.scan.ScanActivity
ADDED from C:\Users\folly\working\SUNMI\Transfer\P2&P2PRO payment SDK\P2&P2PRO pyament SDK\SunmiPaySdkTestDemo\app\src\main\AndroidManifest.xml:106:9-55
	android:name
		ADDED from C:\Users\folly\working\SUNMI\Transfer\P2&P2PRO payment SDK\P2&P2PRO pyament SDK\SunmiPaySdkTestDemo\app\src\main\AndroidManifest.xml:106:19-52
activity#com.sm.sdk.demo.scan.ScanResultActivity
ADDED from C:\Users\folly\working\SUNMI\Transfer\P2&P2PRO payment SDK\P2&P2PRO pyament SDK\SunmiPaySdkTestDemo\app\src\main\AndroidManifest.xml:107:9-61
	android:name
		ADDED from C:\Users\folly\working\SUNMI\Transfer\P2&P2PRO payment SDK\P2&P2PRO pyament SDK\SunmiPaySdkTestDemo\app\src\main\AndroidManifest.xml:107:19-58
activity#com.sm.sdk.demo.scan.BarcodeActivity
ADDED from C:\Users\folly\working\SUNMI\Transfer\P2&P2PRO payment SDK\P2&P2PRO pyament SDK\SunmiPaySdkTestDemo\app\src\main\AndroidManifest.xml:108:9-58
	android:name
		ADDED from C:\Users\folly\working\SUNMI\Transfer\P2&P2PRO payment SDK\P2&P2PRO pyament SDK\SunmiPaySdkTestDemo\app\src\main\AndroidManifest.xml:108:19-55
activity#com.sm.sdk.demo.etc.ETCActivity
ADDED from C:\Users\folly\working\SUNMI\Transfer\P2&P2PRO payment SDK\P2&P2PRO pyament SDK\SunmiPaySdkTestDemo\app\src\main\AndroidManifest.xml:110:9-53
	android:name
		ADDED from C:\Users\folly\working\SUNMI\Transfer\P2&P2PRO payment SDK\P2&P2PRO pyament SDK\SunmiPaySdkTestDemo\app\src\main\AndroidManifest.xml:110:19-50
activity#com.sm.sdk.demo.etc.I2CDataExchangeActivity
ADDED from C:\Users\folly\working\SUNMI\Transfer\P2&P2PRO payment SDK\P2&P2PRO pyament SDK\SunmiPaySdkTestDemo\app\src\main\AndroidManifest.xml:111:9-113:57
	android:windowSoftInputMode
		ADDED from C:\Users\folly\working\SUNMI\Transfer\P2&P2PRO payment SDK\P2&P2PRO pyament SDK\SunmiPaySdkTestDemo\app\src\main\AndroidManifest.xml:113:13-54
	android:name
		ADDED from C:\Users\folly\working\SUNMI\Transfer\P2&P2PRO payment SDK\P2&P2PRO pyament SDK\SunmiPaySdkTestDemo\app\src\main\AndroidManifest.xml:112:13-56
activity#com.sm.sdk.demo.etc.SearchETCDeviceActivity
ADDED from C:\Users\folly\working\SUNMI\Transfer\P2&P2PRO payment SDK\P2&P2PRO pyament SDK\SunmiPaySdkTestDemo\app\src\main\AndroidManifest.xml:114:9-116:57
	android:windowSoftInputMode
		ADDED from C:\Users\folly\working\SUNMI\Transfer\P2&P2PRO payment SDK\P2&P2PRO pyament SDK\SunmiPaySdkTestDemo\app\src\main\AndroidManifest.xml:116:13-54
	android:name
		ADDED from C:\Users\folly\working\SUNMI\Transfer\P2&P2PRO payment SDK\P2&P2PRO pyament SDK\SunmiPaySdkTestDemo\app\src\main\AndroidManifest.xml:115:13-56
activity#com.sm.sdk.demo.etc.ETCStressTestActivity
ADDED from C:\Users\folly\working\SUNMI\Transfer\P2&P2PRO payment SDK\P2&P2PRO pyament SDK\SunmiPaySdkTestDemo\app\src\main\AndroidManifest.xml:117:9-119:57
	android:windowSoftInputMode
		ADDED from C:\Users\folly\working\SUNMI\Transfer\P2&P2PRO payment SDK\P2&P2PRO pyament SDK\SunmiPaySdkTestDemo\app\src\main\AndroidManifest.xml:119:13-54
	android:name
		ADDED from C:\Users\folly\working\SUNMI\Transfer\P2&P2PRO payment SDK\P2&P2PRO pyament SDK\SunmiPaySdkTestDemo\app\src\main\AndroidManifest.xml:118:13-54
activity#com.sm.sdk.demo.etc.ETCTradeActivity
ADDED from C:\Users\folly\working\SUNMI\Transfer\P2&P2PRO payment SDK\P2&P2PRO pyament SDK\SunmiPaySdkTestDemo\app\src\main\AndroidManifest.xml:120:9-122:57
	android:windowSoftInputMode
		ADDED from C:\Users\folly\working\SUNMI\Transfer\P2&P2PRO payment SDK\P2&P2PRO pyament SDK\SunmiPaySdkTestDemo\app\src\main\AndroidManifest.xml:122:13-54
	android:name
		ADDED from C:\Users\folly\working\SUNMI\Transfer\P2&P2PRO payment SDK\P2&P2PRO pyament SDK\SunmiPaySdkTestDemo\app\src\main\AndroidManifest.xml:121:13-49
activity#com.sm.sdk.demo.other.OtherActivity
ADDED from C:\Users\folly\working\SUNMI\Transfer\P2&P2PRO payment SDK\P2&P2PRO pyament SDK\SunmiPaySdkTestDemo\app\src\main\AndroidManifest.xml:124:9-57
	android:name
		ADDED from C:\Users\folly\working\SUNMI\Transfer\P2&P2PRO payment SDK\P2&P2PRO pyament SDK\SunmiPaySdkTestDemo\app\src\main\AndroidManifest.xml:124:19-54
activity#com.sm.sdk.demo.other.VersionActivity
ADDED from C:\Users\folly\working\SUNMI\Transfer\P2&P2PRO payment SDK\P2&P2PRO pyament SDK\SunmiPaySdkTestDemo\app\src\main\AndroidManifest.xml:125:9-59
	android:name
		ADDED from C:\Users\folly\working\SUNMI\Transfer\P2&P2PRO payment SDK\P2&P2PRO pyament SDK\SunmiPaySdkTestDemo\app\src\main\AndroidManifest.xml:125:19-56
activity#com.sm.sdk.demo.other.LanguageActivity
ADDED from C:\Users\folly\working\SUNMI\Transfer\P2&P2PRO payment SDK\P2&P2PRO pyament SDK\SunmiPaySdkTestDemo\app\src\main\AndroidManifest.xml:126:9-60
	android:name
		ADDED from C:\Users\folly\working\SUNMI\Transfer\P2&P2PRO payment SDK\P2&P2PRO pyament SDK\SunmiPaySdkTestDemo\app\src\main\AndroidManifest.xml:126:19-57
activity#com.sm.sdk.demo.other.TamperLogActivity
ADDED from C:\Users\folly\working\SUNMI\Transfer\P2&P2PRO payment SDK\P2&P2PRO pyament SDK\SunmiPaySdkTestDemo\app\src\main\AndroidManifest.xml:127:9-61
	android:name
		ADDED from C:\Users\folly\working\SUNMI\Transfer\P2&P2PRO payment SDK\P2&P2PRO pyament SDK\SunmiPaySdkTestDemo\app\src\main\AndroidManifest.xml:127:19-58
activity#com.sm.sdk.demo.other.MultiThreadTestActivity
ADDED from C:\Users\folly\working\SUNMI\Transfer\P2&P2PRO payment SDK\P2&P2PRO pyament SDK\SunmiPaySdkTestDemo\app\src\main\AndroidManifest.xml:128:9-67
	android:name
		ADDED from C:\Users\folly\working\SUNMI\Transfer\P2&P2PRO payment SDK\P2&P2PRO pyament SDK\SunmiPaySdkTestDemo\app\src\main\AndroidManifest.xml:128:19-64
activity#com.sm.sdk.demo.other.ESignatureActivity
ADDED from C:\Users\folly\working\SUNMI\Transfer\P2&P2PRO payment SDK\P2&P2PRO pyament SDK\SunmiPaySdkTestDemo\app\src\main\AndroidManifest.xml:129:9-62
	android:name
		ADDED from C:\Users\folly\working\SUNMI\Transfer\P2&P2PRO payment SDK\P2&P2PRO pyament SDK\SunmiPaySdkTestDemo\app\src\main\AndroidManifest.xml:129:19-59
activity#com.sm.sdk.demo.other.ScreenActivity
ADDED from C:\Users\folly\working\SUNMI\Transfer\P2&P2PRO payment SDK\P2&P2PRO pyament SDK\SunmiPaySdkTestDemo\app\src\main\AndroidManifest.xml:130:9-58
	android:name
		ADDED from C:\Users\folly\working\SUNMI\Transfer\P2&P2PRO payment SDK\P2&P2PRO pyament SDK\SunmiPaySdkTestDemo\app\src\main\AndroidManifest.xml:130:19-55
activity#com.sm.sdk.demo.other.GB2312Activity
ADDED from C:\Users\folly\working\SUNMI\Transfer\P2&P2PRO payment SDK\P2&P2PRO pyament SDK\SunmiPaySdkTestDemo\app\src\main\AndroidManifest.xml:131:9-58
	android:name
		ADDED from C:\Users\folly\working\SUNMI\Transfer\P2&P2PRO payment SDK\P2&P2PRO pyament SDK\SunmiPaySdkTestDemo\app\src\main\AndroidManifest.xml:131:19-55
activity#com.sm.sdk.demo.other.SetTimeDateActivity
ADDED from C:\Users\folly\working\SUNMI\Transfer\P2&P2PRO payment SDK\P2&P2PRO pyament SDK\SunmiPaySdkTestDemo\app\src\main\AndroidManifest.xml:132:9-63
	android:name
		ADDED from C:\Users\folly\working\SUNMI\Transfer\P2&P2PRO payment SDK\P2&P2PRO pyament SDK\SunmiPaySdkTestDemo\app\src\main\AndroidManifest.xml:132:19-60
activity#com.sm.sdk.demo.other.SettingActivity
ADDED from C:\Users\folly\working\SUNMI\Transfer\P2&P2PRO payment SDK\P2&P2PRO pyament SDK\SunmiPaySdkTestDemo\app\src\main\AndroidManifest.xml:133:9-59
	android:name
		ADDED from C:\Users\folly\working\SUNMI\Transfer\P2&P2PRO payment SDK\P2&P2PRO pyament SDK\SunmiPaySdkTestDemo\app\src\main\AndroidManifest.xml:133:19-56
activity#com.sm.sdk.demo.other.DeviceCommActivity
ADDED from C:\Users\folly\working\SUNMI\Transfer\P2&P2PRO payment SDK\P2&P2PRO pyament SDK\SunmiPaySdkTestDemo\app\src\main\AndroidManifest.xml:134:9-62
	android:name
		ADDED from C:\Users\folly\working\SUNMI\Transfer\P2&P2PRO payment SDK\P2&P2PRO pyament SDK\SunmiPaySdkTestDemo\app\src\main\AndroidManifest.xml:134:19-59
activity#com.sm.sdk.demo.other.PCDParamActivity
ADDED from C:\Users\folly\working\SUNMI\Transfer\P2&P2PRO payment SDK\P2&P2PRO pyament SDK\SunmiPaySdkTestDemo\app\src\main\AndroidManifest.xml:135:9-60
	android:name
		ADDED from C:\Users\folly\working\SUNMI\Transfer\P2&P2PRO payment SDK\P2&P2PRO pyament SDK\SunmiPaySdkTestDemo\app\src\main\AndroidManifest.xml:135:19-57
uses-sdk
INJECTED from C:\Users\folly\working\SUNMI\Transfer\P2&P2PRO payment SDK\P2&P2PRO pyament SDK\SunmiPaySdkTestDemo\app\src\main\AndroidManifest.xml reason: use-sdk injection requested
INJECTED from C:\Users\folly\working\SUNMI\Transfer\P2&P2PRO payment SDK\P2&P2PRO pyament SDK\SunmiPaySdkTestDemo\app\src\main\AndroidManifest.xml
INJECTED from C:\Users\folly\working\SUNMI\Transfer\P2&P2PRO payment SDK\P2&P2PRO pyament SDK\SunmiPaySdkTestDemo\app\src\main\AndroidManifest.xml
MERGED from [PayLib-release-1.4.49.aar] C:\Users\folly\.gradle\caches\transforms-2\files-2.1\86d0d81aa8c04a01e136af5445670ccd\PayLib-release-1.4.49\AndroidManifest.xml:7:5-9:41
MERGED from [PayLib-release-1.4.49.aar] C:\Users\folly\.gradle\caches\transforms-2\files-2.1\86d0d81aa8c04a01e136af5445670ccd\PayLib-release-1.4.49\AndroidManifest.xml:7:5-9:41
MERGED from [com.android.support:design:28.0.0] C:\Users\folly\.gradle\caches\transforms-2\files-2.1\2762df556eb00935af44a9cef289bcc5\design-28.0.0\AndroidManifest.xml:20:5-44
MERGED from [com.android.support:design:28.0.0] C:\Users\folly\.gradle\caches\transforms-2\files-2.1\2762df556eb00935af44a9cef289bcc5\design-28.0.0\AndroidManifest.xml:20:5-44
MERGED from [com.android.support:appcompat-v7:28.0.0] C:\Users\folly\.gradle\caches\transforms-2\files-2.1\2ad9bfadafd430f8dbad1412b3cf8d16\appcompat-v7-28.0.0\AndroidManifest.xml:20:5-44
MERGED from [com.android.support:appcompat-v7:28.0.0] C:\Users\folly\.gradle\caches\transforms-2\files-2.1\2ad9bfadafd430f8dbad1412b3cf8d16\appcompat-v7-28.0.0\AndroidManifest.xml:20:5-44
MERGED from [com.android.support:recyclerview-v7:28.0.0] C:\Users\folly\.gradle\caches\transforms-2\files-2.1\cbc9fded8b0ca2dc6b55abe24b8dd624\recyclerview-v7-28.0.0\AndroidManifest.xml:20:5-44
MERGED from [com.android.support:recyclerview-v7:28.0.0] C:\Users\folly\.gradle\caches\transforms-2\files-2.1\cbc9fded8b0ca2dc6b55abe24b8dd624\recyclerview-v7-28.0.0\AndroidManifest.xml:20:5-44
MERGED from [com.android.support.constraint:constraint-layout:1.1.3] C:\Users\folly\.gradle\caches\transforms-2\files-2.1\88180c2d9df321ed403965b1f5904015\constraint-layout-1.1.3\AndroidManifest.xml:5:5-7:41
MERGED from [com.android.support.constraint:constraint-layout:1.1.3] C:\Users\folly\.gradle\caches\transforms-2\files-2.1\88180c2d9df321ed403965b1f5904015\constraint-layout-1.1.3\AndroidManifest.xml:5:5-7:41
MERGED from [com.sunmi:sunmiui:1.1.27] C:\Users\folly\.gradle\caches\transforms-2\files-2.1\b6198dd446f818d5a27065717a3ed399\sunmiui-1.1.27\AndroidManifest.xml:7:5-9:41
MERGED from [com.sunmi:sunmiui:1.1.27] C:\Users\folly\.gradle\caches\transforms-2\files-2.1\b6198dd446f818d5a27065717a3ed399\sunmiui-1.1.27\AndroidManifest.xml:7:5-9:41
MERGED from [com.sunmi:printerlibrary:1.0.7] C:\Users\folly\.gradle\caches\transforms-2\files-2.1\ecb2b1b8199059aa22a77af959b8eaa2\printerlibrary-1.0.7\AndroidManifest.xml:7:5-9:41
MERGED from [com.sunmi:printerlibrary:1.0.7] C:\Users\folly\.gradle\caches\transforms-2\files-2.1\ecb2b1b8199059aa22a77af959b8eaa2\printerlibrary-1.0.7\AndroidManifest.xml:7:5-9:41
MERGED from [com.android.support:support-fragment:28.0.0] C:\Users\folly\.gradle\caches\transforms-2\files-2.1\2c2719b22890890f5ae6a51c577cf1e6\support-fragment-28.0.0\AndroidManifest.xml:20:5-44
MERGED from [com.android.support:support-fragment:28.0.0] C:\Users\folly\.gradle\caches\transforms-2\files-2.1\2c2719b22890890f5ae6a51c577cf1e6\support-fragment-28.0.0\AndroidManifest.xml:20:5-44
MERGED from [com.android.support:animated-vector-drawable:28.0.0] C:\Users\folly\.gradle\caches\transforms-2\files-2.1\07ec705aed5324b71d72c4292188ba58\animated-vector-drawable-28.0.0\AndroidManifest.xml:20:5-44
MERGED from [com.android.support:animated-vector-drawable:28.0.0] C:\Users\folly\.gradle\caches\transforms-2\files-2.1\07ec705aed5324b71d72c4292188ba58\animated-vector-drawable-28.0.0\AndroidManifest.xml:20:5-44
MERGED from [com.android.support:support-core-ui:28.0.0] C:\Users\folly\.gradle\caches\transforms-2\files-2.1\1334fe890717dc3473dc186f28449ae9\support-core-ui-28.0.0\AndroidManifest.xml:20:5-44
MERGED from [com.android.support:support-core-ui:28.0.0] C:\Users\folly\.gradle\caches\transforms-2\files-2.1\1334fe890717dc3473dc186f28449ae9\support-core-ui-28.0.0\AndroidManifest.xml:20:5-44
MERGED from [com.android.support:support-core-utils:28.0.0] C:\Users\folly\.gradle\caches\transforms-2\files-2.1\51316cf1e90ac9ba1040508849baa486\support-core-utils-28.0.0\AndroidManifest.xml:20:5-44
MERGED from [com.android.support:support-core-utils:28.0.0] C:\Users\folly\.gradle\caches\transforms-2\files-2.1\51316cf1e90ac9ba1040508849baa486\support-core-utils-28.0.0\AndroidManifest.xml:20:5-44
MERGED from [com.android.support:transition:28.0.0] C:\Users\folly\.gradle\caches\transforms-2\files-2.1\c5d3c2766ada7a1573158f87d282c560\transition-28.0.0\AndroidManifest.xml:20:5-44
MERGED from [com.android.support:transition:28.0.0] C:\Users\folly\.gradle\caches\transforms-2\files-2.1\c5d3c2766ada7a1573158f87d282c560\transition-28.0.0\AndroidManifest.xml:20:5-44
MERGED from [com.android.support:support-vector-drawable:28.0.0] C:\Users\folly\.gradle\caches\transforms-2\files-2.1\eef6aeb86cd4abc591f340e9ebffbc25\support-vector-drawable-28.0.0\AndroidManifest.xml:20:5-44
MERGED from [com.android.support:support-vector-drawable:28.0.0] C:\Users\folly\.gradle\caches\transforms-2\files-2.1\eef6aeb86cd4abc591f340e9ebffbc25\support-vector-drawable-28.0.0\AndroidManifest.xml:20:5-44
MERGED from [com.android.support:viewpager:28.0.0] C:\Users\folly\.gradle\caches\transforms-2\files-2.1\9e47cc7119ced64ae9076bee16f6f474\viewpager-28.0.0\AndroidManifest.xml:20:5-44
MERGED from [com.android.support:viewpager:28.0.0] C:\Users\folly\.gradle\caches\transforms-2\files-2.1\9e47cc7119ced64ae9076bee16f6f474\viewpager-28.0.0\AndroidManifest.xml:20:5-44
MERGED from [com.android.support:coordinatorlayout:28.0.0] C:\Users\folly\.gradle\caches\transforms-2\files-2.1\383ad2c48ccebde577332ae7ce906c52\coordinatorlayout-28.0.0\AndroidManifest.xml:20:5-44
MERGED from [com.android.support:coordinatorlayout:28.0.0] C:\Users\folly\.gradle\caches\transforms-2\files-2.1\383ad2c48ccebde577332ae7ce906c52\coordinatorlayout-28.0.0\AndroidManifest.xml:20:5-44
MERGED from [com.android.support:drawerlayout:28.0.0] C:\Users\folly\.gradle\caches\transforms-2\files-2.1\aabad928b9dfc3bb4f99a8e919d7ca2a\drawerlayout-28.0.0\AndroidManifest.xml:20:5-44
MERGED from [com.android.support:drawerlayout:28.0.0] C:\Users\folly\.gradle\caches\transforms-2\files-2.1\aabad928b9dfc3bb4f99a8e919d7ca2a\drawerlayout-28.0.0\AndroidManifest.xml:20:5-44
MERGED from [com.android.support:slidingpanelayout:28.0.0] C:\Users\folly\.gradle\caches\transforms-2\files-2.1\d777efb7f005f4061664eb152e4e4155\slidingpanelayout-28.0.0\AndroidManifest.xml:20:5-44
MERGED from [com.android.support:slidingpanelayout:28.0.0] C:\Users\folly\.gradle\caches\transforms-2\files-2.1\d777efb7f005f4061664eb152e4e4155\slidingpanelayout-28.0.0\AndroidManifest.xml:20:5-44
MERGED from [com.android.support:customview:28.0.0] C:\Users\folly\.gradle\caches\transforms-2\files-2.1\378cad5251b7bf9290fb2bb3c5781307\customview-28.0.0\AndroidManifest.xml:20:5-44
MERGED from [com.android.support:customview:28.0.0] C:\Users\folly\.gradle\caches\transforms-2\files-2.1\378cad5251b7bf9290fb2bb3c5781307\customview-28.0.0\AndroidManifest.xml:20:5-44
MERGED from [com.android.support:swiperefreshlayout:28.0.0] C:\Users\folly\.gradle\caches\transforms-2\files-2.1\a7cb32bf2478ccd8ed752b2b8a998b8f\swiperefreshlayout-28.0.0\AndroidManifest.xml:20:5-44
MERGED from [com.android.support:swiperefreshlayout:28.0.0] C:\Users\folly\.gradle\caches\transforms-2\files-2.1\a7cb32bf2478ccd8ed752b2b8a998b8f\swiperefreshlayout-28.0.0\AndroidManifest.xml:20:5-44
MERGED from [com.android.support:asynclayoutinflater:28.0.0] C:\Users\folly\.gradle\caches\transforms-2\files-2.1\11902811a1e20f50ecac97c485be82b1\asynclayoutinflater-28.0.0\AndroidManifest.xml:20:5-44
MERGED from [com.android.support:asynclayoutinflater:28.0.0] C:\Users\folly\.gradle\caches\transforms-2\files-2.1\11902811a1e20f50ecac97c485be82b1\asynclayoutinflater-28.0.0\AndroidManifest.xml:20:5-44
MERGED from [com.android.support:loader:28.0.0] C:\Users\folly\.gradle\caches\transforms-2\files-2.1\ad62f407f0f82b0a54b4d08f147faaa7\loader-28.0.0\AndroidManifest.xml:20:5-44
MERGED from [com.android.support:loader:28.0.0] C:\Users\folly\.gradle\caches\transforms-2\files-2.1\ad62f407f0f82b0a54b4d08f147faaa7\loader-28.0.0\AndroidManifest.xml:20:5-44
MERGED from [com.android.support:support-compat:28.0.0] C:\Users\folly\.gradle\caches\transforms-2\files-2.1\f14724208b5bfeeef0d6bdefe649bca7\support-compat-28.0.0\AndroidManifest.xml:20:5-44
MERGED from [com.android.support:support-compat:28.0.0] C:\Users\folly\.gradle\caches\transforms-2\files-2.1\f14724208b5bfeeef0d6bdefe649bca7\support-compat-28.0.0\AndroidManifest.xml:20:5-44
MERGED from [com.android.support:cardview-v7:28.0.0] C:\Users\folly\.gradle\caches\transforms-2\files-2.1\67b0ea41bb31f1300bd726681636eb0e\cardview-v7-28.0.0\AndroidManifest.xml:20:5-44
MERGED from [com.android.support:cardview-v7:28.0.0] C:\Users\folly\.gradle\caches\transforms-2\files-2.1\67b0ea41bb31f1300bd726681636eb0e\cardview-v7-28.0.0\AndroidManifest.xml:20:5-44
MERGED from [com.android.support:versionedparcelable:28.0.0] C:\Users\folly\.gradle\caches\transforms-2\files-2.1\f993d148e999fdf956a4937ae88c6ee1\versionedparcelable-28.0.0\AndroidManifest.xml:20:5-44
MERGED from [com.android.support:versionedparcelable:28.0.0] C:\Users\folly\.gradle\caches\transforms-2\files-2.1\f993d148e999fdf956a4937ae88c6ee1\versionedparcelable-28.0.0\AndroidManifest.xml:20:5-44
MERGED from [com.android.support:cursoradapter:28.0.0] C:\Users\folly\.gradle\caches\transforms-2\files-2.1\16e10458eb3d86dce547be2d4dce65a9\cursoradapter-28.0.0\AndroidManifest.xml:20:5-44
MERGED from [com.android.support:cursoradapter:28.0.0] C:\Users\folly\.gradle\caches\transforms-2\files-2.1\16e10458eb3d86dce547be2d4dce65a9\cursoradapter-28.0.0\AndroidManifest.xml:20:5-44
MERGED from [android.arch.lifecycle:runtime:1.1.1] C:\Users\folly\.gradle\caches\transforms-2\files-2.1\a4cce78b48541915b29a77ed3286103c\runtime-1.1.1\AndroidManifest.xml:20:5-44
MERGED from [android.arch.lifecycle:runtime:1.1.1] C:\Users\folly\.gradle\caches\transforms-2\files-2.1\a4cce78b48541915b29a77ed3286103c\runtime-1.1.1\AndroidManifest.xml:20:5-44
MERGED from [com.android.support:interpolator:28.0.0] C:\Users\folly\.gradle\caches\transforms-2\files-2.1\5e443312ff8e9912636de42e05adc2a8\interpolator-28.0.0\AndroidManifest.xml:20:5-44
MERGED from [com.android.support:interpolator:28.0.0] C:\Users\folly\.gradle\caches\transforms-2\files-2.1\5e443312ff8e9912636de42e05adc2a8\interpolator-28.0.0\AndroidManifest.xml:20:5-44
MERGED from [com.android.support:documentfile:28.0.0] C:\Users\folly\.gradle\caches\transforms-2\files-2.1\d2514de441a98c98e63d23342e697e1c\documentfile-28.0.0\AndroidManifest.xml:20:5-44
MERGED from [com.android.support:documentfile:28.0.0] C:\Users\folly\.gradle\caches\transforms-2\files-2.1\d2514de441a98c98e63d23342e697e1c\documentfile-28.0.0\AndroidManifest.xml:20:5-44
MERGED from [com.android.support:localbroadcastmanager:28.0.0] C:\Users\folly\.gradle\caches\transforms-2\files-2.1\587d4b4ba2bee95fa70ebde7fdef163e\localbroadcastmanager-28.0.0\AndroidManifest.xml:20:5-44
MERGED from [com.android.support:localbroadcastmanager:28.0.0] C:\Users\folly\.gradle\caches\transforms-2\files-2.1\587d4b4ba2bee95fa70ebde7fdef163e\localbroadcastmanager-28.0.0\AndroidManifest.xml:20:5-44
MERGED from [com.android.support:print:28.0.0] C:\Users\folly\.gradle\caches\transforms-2\files-2.1\6649028815494b2aeabe1bc5c2405c56\print-28.0.0\AndroidManifest.xml:20:5-44
MERGED from [com.android.support:print:28.0.0] C:\Users\folly\.gradle\caches\transforms-2\files-2.1\6649028815494b2aeabe1bc5c2405c56\print-28.0.0\AndroidManifest.xml:20:5-44
MERGED from [android.arch.lifecycle:viewmodel:1.1.1] C:\Users\folly\.gradle\caches\transforms-2\files-2.1\5e2b7336b65fd01a7d1759b63ce95e82\viewmodel-1.1.1\AndroidManifest.xml:20:5-44
MERGED from [android.arch.lifecycle:viewmodel:1.1.1] C:\Users\folly\.gradle\caches\transforms-2\files-2.1\5e2b7336b65fd01a7d1759b63ce95e82\viewmodel-1.1.1\AndroidManifest.xml:20:5-44
MERGED from [android.arch.lifecycle:livedata:1.1.1] C:\Users\folly\.gradle\caches\transforms-2\files-2.1\bde0a02c7eaeb68bbbbe9daba8b5a4d3\livedata-1.1.1\AndroidManifest.xml:20:5-44
MERGED from [android.arch.lifecycle:livedata:1.1.1] C:\Users\folly\.gradle\caches\transforms-2\files-2.1\bde0a02c7eaeb68bbbbe9daba8b5a4d3\livedata-1.1.1\AndroidManifest.xml:20:5-44
MERGED from [android.arch.lifecycle:livedata-core:1.1.1] C:\Users\folly\.gradle\caches\transforms-2\files-2.1\80a25cd447b6f67296c411c5c16059bb\livedata-core-1.1.1\AndroidManifest.xml:20:5-44
MERGED from [android.arch.lifecycle:livedata-core:1.1.1] C:\Users\folly\.gradle\caches\transforms-2\files-2.1\80a25cd447b6f67296c411c5c16059bb\livedata-core-1.1.1\AndroidManifest.xml:20:5-44
MERGED from [android.arch.core:runtime:1.1.1] C:\Users\folly\.gradle\caches\transforms-2\files-2.1\a9f3caa807bbac705342bf916bae7e9b\runtime-1.1.1\AndroidManifest.xml:20:5-44
MERGED from [android.arch.core:runtime:1.1.1] C:\Users\folly\.gradle\caches\transforms-2\files-2.1\a9f3caa807bbac705342bf916bae7e9b\runtime-1.1.1\AndroidManifest.xml:20:5-44
MERGED from [com.makeramen:roundedimageview:2.2.1] C:\Users\folly\.gradle\caches\transforms-2\files-2.1\ed104c36955783b4ee68cb766ddffc59\roundedimageview-2.2.1\AndroidManifest.xml:7:5-43
MERGED from [com.makeramen:roundedimageview:2.2.1] C:\Users\folly\.gradle\caches\transforms-2\files-2.1\ed104c36955783b4ee68cb766ddffc59\roundedimageview-2.2.1\AndroidManifest.xml:7:5-43
INJECTED from C:\Users\folly\working\SUNMI\Transfer\P2&P2PRO payment SDK\P2&P2PRO pyament SDK\SunmiPaySdkTestDemo\app\src\main\AndroidManifest.xml
INJECTED from C:\Users\folly\working\SUNMI\Transfer\P2&P2PRO payment SDK\P2&P2PRO pyament SDK\SunmiPaySdkTestDemo\app\src\main\AndroidManifest.xml
	android:targetSdkVersion
		INJECTED from C:\Users\folly\working\SUNMI\Transfer\P2&P2PRO payment SDK\P2&P2PRO pyament SDK\SunmiPaySdkTestDemo\app\src\main\AndroidManifest.xml
		ADDED from C:\Users\folly\working\SUNMI\Transfer\P2&P2PRO payment SDK\P2&P2PRO pyament SDK\SunmiPaySdkTestDemo\app\src\main\AndroidManifest.xml
		INJECTED from C:\Users\folly\working\SUNMI\Transfer\P2&P2PRO payment SDK\P2&P2PRO pyament SDK\SunmiPaySdkTestDemo\app\src\main\AndroidManifest.xml
	android:minSdkVersion
		INJECTED from C:\Users\folly\working\SUNMI\Transfer\P2&P2PRO payment SDK\P2&P2PRO pyament SDK\SunmiPaySdkTestDemo\app\src\main\AndroidManifest.xml
		ADDED from C:\Users\folly\working\SUNMI\Transfer\P2&P2PRO payment SDK\P2&P2PRO pyament SDK\SunmiPaySdkTestDemo\app\src\main\AndroidManifest.xml
		INJECTED from C:\Users\folly\working\SUNMI\Transfer\P2&P2PRO payment SDK\P2&P2PRO pyament SDK\SunmiPaySdkTestDemo\app\src\main\AndroidManifest.xml
uses-permission#android.permission.SYSTEM_ALERT_WINDOW
ADDED from [com.sunmi:sunmiui:1.1.27] C:\Users\folly\.gradle\caches\transforms-2\files-2.1\b6198dd446f818d5a27065717a3ed399\sunmiui-1.1.27\AndroidManifest.xml:11:5-78
	android:name
		ADDED from [com.sunmi:sunmiui:1.1.27] C:\Users\folly\.gradle\caches\transforms-2\files-2.1\b6198dd446f818d5a27065717a3ed399\sunmiui-1.1.27\AndroidManifest.xml:11:22-75
